#FIG 3.2
Landscape
Center
Inches
Letter  
100.00
Single
-2
1200 2
2 1 0 1 0 7 50 0 -1 0.000 0 0 -1 0 0 2
	 1200 2400 1200 4800
2 1 0 1 0 7 50 0 -1 0.000 0 0 -1 0 0 2
	 3600 2400 3600 4800
2 1 0 1 0 7 50 0 -1 0.000 0 0 -1 0 0 2
	 6000 2400 6000 4800
2 1 1 1 0 7 50 0 -1 4.000 0 0 -1 0 0 2
	 2400 2400 2400 4800
2 1 1 1 0 7 50 0 -1 4.000 0 0 -1 0 0 2
	 4800 2400 4800 4800
4 0 0 50 0 32 18 0.0000 4 195 210 975 5025 F\001
4 0 0 50 0 32 18 0.0000 4 195 210 3375 5025 F\001
4 0 0 50 0 32 18 0.0000 4 195 210 5775 5025 F\001
4 0 0 50 0 0 18 0.0000 4 195 165 4575 5025 E\001
4 0 0 50 0 0 18 0.0000 4 195 165 2175 5025 E\001
4 0 0 50 0 0 12 0.0000 4 135 240 6075 5100 i+1\001
4 0 0 50 0 0 12 0.0000 4 135 195 1275 5100 i-1\001
4 0 0 50 0 0 12 0.0000 4 135 45 3600 5100 i\001
4 0 0 50 0 0 12 0.0000 4 135 330 2400 5100 i-1/2\001
4 0 0 50 0 0 12 0.0000 4 135 375 4800 5100 i+1/2\001
4 0 0 50 0 32 18 0.0000 4 135 120 4875 3375 e\001
4 0 0 50 0 0 12 0.0000 4 135 375 5025 3450 i+1/2\001
4 0 0 50 0 32 18 0.0000 4 135 120 2475 3375 e\001
4 0 0 50 0 0 12 0.0000 4 135 330 2625 3450 i-1/2\001
4 0 0 50 0 32 18 0.0000 4 195 150 3300 4200 r\001
4 0 0 50 0 0 12 0.0000 4 135 45 3450 4275 i\001
