test.inp -- test input file for oopd1
{  // you can have comments after braces

Variables
{
	melec = 9.1E-31
}

Species // the first species
{
   name = electrons
   q =-1.6E-19 // another comment
   m = melec // hello
	//   m = 1.6E-19
}


SpatialRegion 
{
  dt = 1E-8; 
  Grid
  {
	x0 = 0.
	x1 = 1.
	ng = 101
  }

  DirectSolver
  {	
	rhoback=0.0; 	
  }
  Dielectric
  {
   j0 = 0
   j1 = 1
   E0 = 2.6
  }

  Load
  {
//	UniformVolumeLoad
//        T_load=1000   //unit in "ev"
//        dO_over_dt=2.
	species = electrons
	n = 0.0
	np2c = 1E5
  }

} //ends SpatialRegion

}
