\emit.inp -- test the Emitter class
{  // you can have comments after braces

Variables
{
	melec = 9.1E-31
}

Species // the first species
{
   name = electrons
   q =-1.6E-19 // another comment
   m = melec // hello
	//   m = 1.6E-19
}

SpatialRegion 
{
  dt = 1E-15; 
  Grid
  {
	x0 = 0.
	x1 = 0.01
	ng = 1000
  }

  PoissonSolver
  {	
	rhoback=0.0; 	
  }
  Conductor
  {
   j0 = 0
//-------------Example of using beamemitter or Fieldemitter---------------------------
   BeamEmitter
    {
//        T=100                     // units in ev
	I(t) = -1000
      //*sin(omega*t)
        methods=2
	v0_x=1
	vt_x=1
	np2c = 1E9
	species = electrons
    }
   Circuit
    {
	Drive
	{
	
	V
        DC=-100
	}
    }
  }
} //ends SpatialRegion

DiagnosticControl
{
	bulkvelocity
	histmax = 100  // global histmax for all diagnostics
	nsamppart = 1000000 // sample a million particles from each species
	Diagnostic
	{
		name = number(t)
		open // open number(t) initially
	}
}


}
