maxwellep_src.inp 

Grounded bounded system with uniform positive background and positive ions,
with a background source to sustain the plasma

{


Variables
{
  melec = 9.1E-31
  n0 = 1E15
  L = 0.01
}

Species // the first species
{
  name = electrons
  q = -1.6E-19 
  m = melec
  subcycle = 1
  ForceNonRelativistic
  np2c = 1E8
}
Species 
{
  name = protons
  q = 1.6E-19 
  m = melec*1836
  subcycle = 1
  ForceNonRelativistic
  np2c = 1E8
}

SpatialRegion 
{
  dt = 5E-11;
  Grid
  {
    x0 = 0.
    x1 = L
    ng = 101
  }
  PoissonSolver
  {	
  }
  
  Conductor
  {
    j0 = 0

    Circuit
    {
      Drive
      {
	V
	DC=0.
      }
    }
  }

  PlasmaSource
  {
    species = electrons
    x0 = 0
    x1 = L
    rate = 1E20
    densityfunction = 1
    T_load = 1 // Te= 1 eV
    // vt_x = 4.5E5
  }

  PlasmaSource
  {
    species = protons
    x0 = 0
    x1 = L
    rate = 1E20
    densityfunction = 1
    T_load = 1/40 // Te= 1/40 eV
    // vt_x = 4.5E5
  }

} //ends SpatialRegion

DiagnosticControl
{
	nsamppart = 1000000
}

} //ends
