mcc.inp -- 
Comments: 
1/ Species that can collide, should be given a collisionmodel
2/ The program requires to initialize the default weight in case the
flag useSecDefaultWeight is used in an mccPackage.			        
3/ mccPackages correspond to a predefined set of collisions.
4/ If you want to use the option createInInitialDefaultNames, you 
need to give the species the predefined default names.

{ 
  Variables
    {
      melec = 9.1E-31
      mc = 1.993e-26	
      mion = 1.68E-27
      e = 1.6e-19
      }

  Species 
    {
      name = electrons
      q = -e 
      m = melec
      collisionmodel = E
      DiffusionFluid
          {
	    n = 1E20
	    T = 6
	   }
    }
  Species
    {
      name = Hydrogen_ions
	q = e 
	m = mion
	collisionmodel = H+
	DiffusionFluid
	{
	  n = 1E20
	  T = 6
	}
    }
  Species
    {
      name = CH
	q = 0
	m = mc + mion
	np2c = 1	
	collisionmodel = CH
	}
  Species
    {
      name = CH2
	q = 0
	m = mc + 2*mion
	np2c = 1		
	collisionmodel = CH2
	}
  Species
    {
      name = CH3
	q = 0
	m = mc + 3*mion
	np2c = 1	  
	collisionmodel = CH3
	}
  Species
    {
      name = CH4
	q = 0
	m = mc + 4*mion
	np2c = 1	  
	collisionmodel = CH4
	}
  Species
    {
      name = CH_ions
	q = e
	m = mc + mion
	np2c = 1	  
	collisionmodel = CH+
	}
  Species
    {
      name = CH2_ions
	q = e
	m = mc + 2*mion
	np2c = 1	
	collisionmodel = CH2+
	}
  Species
    {
      name = CH3_ions
	q = e
	m = mc + 3*mion
	np2c = 1	
	collisionmodel = CH3+
	}
  Species
    {
      name = CH4_ions
	q = e
	m = mc + 4*mion
	np2c = 1	
	collisionmodel = CH4+
	}
  SpatialRegion 
    {
      dt = 1E-8
   
	Grid
	{
	  x0 = 0.
	  x1 = 0.10
	  ng = 10
	}

      PoissonSolver
	{	
	  rhoback=0.0; 	
	}

      Conductor
	{
	  j0 = 0

	    BeamEmitter 
	    {
	      T = 0.00001;
	      F(t) =  1e8
	      v0_x= 7e2 // should be 7e2
	      np2c = 1
	      species = CH4
	    }

	  Circuit
	    {
	      Drive
		{
		  V
		    DC= 0.0 //-1000.
		    }
	    }
	}

      Conductor
	{
	  j0 = 9

	    Circuit
	    {
	      Drive
	      {
		V
		DC=0.
	      }
	    }
	}

       MCC
 	{
 	  mccPackage = CH4
	  createInInitialDefaultNames	
	    useSecDefaultWeight
	    }
      MCC
	{
	  mccPackage = CH3
	    createInInitialDefaultNames
	    useSecDefaultWeight
	    }
      MCC
	{
	  mccPackage = CH2
	    createInInitialDefaultNames
	    useSecDefaultWeight	    
	    }
      MCC
	{
	  mccPackage = CH
	  createInInitialDefaultNames
	    useSecDefaultWeight
	  
	    }
      MCC
	{
	  mccPackage = CH4_ions
	  createInInitialDefaultNames
	    useSecDefaultWeight
	    }
      MCC
	{
	  mccPackage = CH3_ions
	  createInInitialDefaultNames
	    useSecDefaultWeight
	    }
      MCC
 	{
   	  mccPackage = CH2_ions		
            createInInitialDefaultNames
	    useSecDefaultWeight
	    }
      MCC
	{
	  mccPackage = CH_ions
            createInInitialDefaultNames
	    useSecDefaultWeight
	    }
    }

  DiagnosticControl
    { 
      bulkvelocity
	nsamppart = 1000000
	Diagnostic
	{
	  name = number(t)
	  open // open number(t) initially
	}
	Diagnostic
	{
		name = n(x)
		open // open n(x) initially
	}
     }

}




