mcc.inp -- 
{  // you can have comments after braces

Variables
{
	melec = 9.1E-31
	mion = 6.67E-26
}

Species // the first species
{
   name = electrons
   q = -1.6E-19 
   m = melec 
   subcycle = 1
   reaction_type = E-
    // m = 1.6E-19
}

Species // the ion species
{
   name = Argon_ions
   q = 1.6E-19 
   m = mion 
   reaction_type = Ar+
 //  undergoes_mcc
   //   m = 1.6E-19
}

Species // the secondary electron species
{
   name = secondary_electrons
   q = -1.6E-19 
   m = melec 
   reaction_type = E-
 //  undergoes_mcc
    //  m = 1.6E-19
}

SpatialRegion 
{
  dt = 5E-12; 
  Grid
  {
	x0 = 0.
	x1 = 0.65
	ng = 1000
  }
  PoissonSolver
  {	
	rhoback=0.0; 	
  }
  

  Conductor
  {
   j0 = 0

    	   BeamEmitter
    {
	I(t) = -5.19
        methods=5
	v0_x=29000000
	np2c = 1E9
	species = electrons
    }
   Circuit
    {
	Drive
	{
	V
	DC=0.
	}
    }
  }

Conductor
  {
   j0 = 999
  Radiation
     {
	density = 8.96			//unit g/ml
	angle = 70
	azi_angle = 0
	atomic_weight = 63.546  		//unit amu
	atomic_number = 29
	impact_species = electrons
	target_name = copper
	energy_min = 0
	energy_max = 30 
	photon_energy_bins = 1000
     }
  Secondary
     {
	method = Vaughan
	energy_emit = 1000
	secondary = 1.0 
	impact_Species = electrons
	secSpecies = secondary_electrons
	threshold = 0.
	energy_max = 10.
     }

   Circuit
    {
	Drive
	{
	V
	DC=0.
	}
    }
 }
    Reactions
     {
 	gas = Argon
      } 
  // mindgame: to have reaction, add a new species of Argon gas
  Load
  {
	species = electrons
	n = 0.
	np2c = 1E-3
  }

  Load
  {
	species = Argon_ions
	n = 0.
	np2c = 1E-2
  }

} //ends SpatialRegion


DiagnosticControl
{
	bulkvelocity
	nsamppart = 1000000 // sample a million particles from each species
}

}




