mcc.inp -- 
{  // you can have comments after braces

Variables
{
	melec = 9.1E-31
	mion = 6.67E-26
}

Species // the first species
{
   name = electrons
   q = -1.6E-19 
   m = melec 
   subcycle = 1
    // m = 1.6E-19
}

Species // the ion species
{
   name = Argon_ions
   q = 1.6E-19 
   m = mion 
   //   m = 1.6E-19
}

Species // the secondary electron species
{
   name = secondary_electrons
   q = -1.6E-19 
   m = melec 
    //  m = 1.6E-19
}

SpatialRegion 
{
  dt = 5E-12; 
  Grid
  {
	x0 = 0.
	x1 = 0.65
	ng = 1000
  }
  PoissonSolver
  {	
	rhoback=0.0; 	
  }
  

  Conductor
  {
   j0 = 0
    Secondary
     {
	method = Vaughan
	energy_emit = 2
	secondary = 0.5
	impact_Species = electrons
	secSpecies = secondary_electrons
	roughness = 1
	threshold = 0.
	energy_max = 10.
     }

   Circuit
    {
	Drive
	{
	V
	DC=-100.
	}
    }
  }

Conductor
  {
   j0 = 999
    Secondary
     {
	method = Vaughan
	energy_emit = 2
	secondary = 0.5
	impact_Species = electrons
	secSpecies = secondary_electrons
	energy_emit = 1
	threshold = 0.
	energy_max = 10.
     }

   Circuit
    {
	Drive
	{
	V
	DC=0.
	}
    }
  }
  Load
  {
	species = electrons
	n = 1.
	np2c = 1E-3
  }

  Load
  {
	species = Argon_ions
	n = 0.
	np2c = 1E-2
  }

} //ends SpatialRegion


DiagnosticControl
{
	bulkvelocity
	nsamppart = 1000000 // sample a million particles from each species
}

}




