simpic.inp -- simpic case in oopd1
{  // you can have comments after braces

Variables
{
	melec = 9.1E-31
}

Species // the first species
{
   name = electrons
   q =-1.6E-19 // another comment
   m = melec // hello
	//   m = 1.6E-19
}


SpatialRegion 
{
  dt = 1E-15; 
  Grid
  {
	x0 = 0.
	x1 = 1.
	ng = 101
  }

 PoissonSolver
  {	
	rhoback=0.000002;
   }

   Conductor
  {
    j0 = 0

    Circuit
    {
      Drive
      {
        V
        DC=25000.
      }
    }
  }


Load
  {
//	UniformVolumeLoad
	species = electrons
	n = 1E12
	np2c = 1E10
  }

} //ends SpatialRegion


}
