TestArm.inp -- 
{  // you can have comments after braces
   //constant secondary coefficient 
Variables
{
	melec = 9.11E-31
	mion = 6.64E-26
}
Species 
{
   name = e-
   q = -1.6E-19 
   m = melec 
   reaction_type = E-
   Force3V
   ForceNonRelativistic
   np2c = 1.0E10
   useSecDefaultWeight
   maxEnergyForSigmaV = 100.

}
Species 
{
   name = Ar
   q = 0.0 
   m = mion 
   reaction_type = Ar
   DiffusionFluid
  {
   n = 9.75E19 // 3mTorr
   T = 0.026
  }
   np2c = 1.0E10
   Force3V
   useSecDefaultWeight
   energyThrToAddAsPIC = 1.0
}
Species 
{
   name = U
   q = 0.0 
   m = mion 
   reaction_type = Unit
   DiffusionFluid
  {
   n = 1 // unit density fluid
   T = 1E-6 // very low temperature
  }
   np2c = 1.0E10
   Force3V
   useSecDefaultWeight
   energyThrToAddAsPIC = 0.0
}
Species 
{
   name = Arm
   q = 0.0 
   m = mion 
   reaction_type = Arm
   np2c = 1.0E10
   Force3V
   useSecDefaultWeight
   energyThrToAddAsPIC = 0.0
}
Species 
{
   name = Arr
   q = 0.0 
   m = mion 
   reaction_type = Arr
   np2c = 1.0E10
   Force3V
   useSecDefaultWeight
   energyThrToAddAsPIC = 0.0
}
Species 
{
   name = Ar4p
   q = 0.0 
   m = mion 
   reaction_type = Ar4p
   np2c = 1.0E10
   Force3V
   useSecDefaultWeight
   energyThrToAddAsPIC = 0.0
}
Species 
{
   name = Ar+
   q = 1.6E-19 
   m = mion 
   reaction_type = Ar+
   np2c = 1.0E10
   Force3V
   useSecDefaultWeight
   maxEnergyForSigmaV = 500.
}
SpatialRegion 
{
  dt = 3.687315E-11; // 2000 timesteps/period at 13.56 MHz 
  Grid
  {
	x0 = 0.
	x1 = 0.1
	ng = 501
	area=0.1 //area in sq meters
  }
  PoissonSolver
  {	
	rhoback=0.0; 	
  }
  Conductor
  {
   j0 = 0
   Circuit
    {
	Drive
	{
	V
	AC = 500
//	I
//	AC = 2.5
        frequency = 13.56e6
	  phase = 180.
	}
    }
  }
Boundary
{
 j0 = 250 //for midpotential
 j1 = 250
}
Conductor
  {
   j0 = 500
  }
  Load
  {
	species = e-
        T_load = 3.3
	n = 3.0E15
  }
  Load
  {
	species = Ar+
        T_load = 0.026
	n = 3.0E15
  }
  Load
  {
	species = Ar4p
        T_load = 3.3
//	n = 1E16 // runs ok
//	n = 5E12 // seg fault
	n = 0 // seg fault
  }
  Load
  {
	species = Arm
        T_load = 3.3
//	n = 1E16 // runs ok
//	n = 5E12 // seg fault
	n = 0 // seg fault
  }
  Load
  {
	species = Arr
        T_load = 3.3
//	n = 1E16 // runs ok
//	n = 5E12 // seg fault
	n = 0 // seg fault
  }
  Load
  {
	species = Ar
        T_load = 3.3
//	n = 1E16 // runs ok
//	n = 5E12 // seg fault
	n = 0 // seg fault
  }
  Reactions
  {
    gas = Argon
  }
} //ends SpatialRegion
  DiagnosticControl
  {
//	debug
	Lsheath = 0.5 // n-(t) = Lsheath*n+(t)
//	Lsheath = 0. // turn off left hand sheath diagnostic
	Rsheath = 0.5 // n-(t) = Rsheath*n+(t)
//	Rsheath = 0. // turn off right hand sheath diagnostic
//	bulkvelocity
//	particleflux1
//	particleflux2
//	particleflux3
//	J1dotE1
//	energydensity1
//	averagevelocity1
//	temperature1
//	temperature
//	J2dotE2
//	alloff
	allon
//	ngriddiagupdate = 10 // update diagnostics every 10 timesteps
	ngriddiagupdate = 1 // update diagnostics every 1 timestep
	nsamppart = 200000 // sample 200000 particles from each species
	naverage=2000 // number of timesteps for grid time averages
//	naverage=1 //don't calculate time-average grid diagnostics
	ncomb=4 // what is this for
	histmax=100000
// here we add a switch for diagnostics of reaction rates
        reaction_diagnostics

  }
}
