TestArICP110K0.inp -- 
Example 1 in Chapter 11 of L&L, 2nd Ed
{  // you can have comments after braces
   //constant secondary coefficient 
Variables
{
	melec = 9.11E-31
	mion = 6.64E-26
}
Species 
{
   name = electrons
   q = -1.6E-19 
   m = melec 
   reaction_type = E-
   Force3V
   ForceNonRelativistic
   np2c = 0.67E9
}
Species 
{
   name = Argon
   q = 0.0 
   m = mion 
   reaction_type = Ar
   DiffusionFluid
  {
   n = 1.95E20 // 6mTorr
   T = 0.026
  }
   np2c = 0.67E9
   Force3V
   energyThrToAddAsPIC = 10000.0 // add PIC particle if energy >1eV
}
Species 
{
   name = Ar_ions
   q = 1.6E-19 
   m = mion 
   reaction_type = Ar+
   np2c = 0.67E9
   Force3V
}
SpatialRegion 
{
  dt = 1.843658E-11; // 4000 timesteps/period at 13.56 MHz 
  Grid
  {
	x0 = 0.
	x1 = 0.1
	ng = 2001
	area=0.01 //area in sq meters
  }
  PoissonSolver
  {	
	surfacecurrent_y=110.0
	frequency_y=13.56E6
//	nupdateE=2000
	rhoback=0.0	
  }
  Conductor
  {
   j0 = 0
   Circuit
    {
	Drive
	{
	V
	DC = 0.0
        //frequency = 13.56e6
	 // phase = 0.
	}
    }
  }
Boundary
{
 j0 = 1000 //for midpotential
 j1 = 1000
//    Distribution
//    {
//      decoupled 
//      species = electrons
//      Emin = 0.0
//      Emax = 60.0
//      energybins = 60
//    }
}
Conductor
  {
   j0 = 2000
//    Distribution
//    {
//      decoupled 
//      species = Ar_ions
//      Emin = 0.0
//      Emax = 250.0
//      energybins = 250
//      anglebins = 250
//      anglemax = 0.2
//    }
    //Distribution
    //{
     // decoupled 
      //species = Argon
      //Emin = 0.0
      //Emax = 250.0
      //energybins = 250
      //anglebins = 250
      //anglemax = 0.2
    //}
//   Circuit
//    {
//	C = 1.0 //add huge capacitor to rhs
//	R = 1.0 //add small resistor to rhs to track discharge current
//    }
  }
  Load
  {
	species = electrons
        T_load = 3.0
	n = 2.0E16
  }
  Load
  {
	species = Ar_ions
        T_load = 0.026
	n = 2.0E16
  }
  Reactions
  {
    gas = Argon
  }
} //ends SpatialRegion
DiagnosticControl
{
//	debug
	Lsheath = 0.5 // n-(t) = Lsheath*n+(t)
//	Lsheath = 0. // turn off left hand sheath diagnostic
	Rsheath = 0.5 // n-(t) = Rsheath*n+(t)
//	Rsheath = 0. // turn off right hand sheath diagnostic
//	bulkvelocity
//	particleflux1
//	particleflux2
//	particleflux3
//	J1dotE1
//	energydensity1
//	averagevelocity1
//	temperature1
//	temperature
//	J2dotE2
//	alloff
	allon
//	ngriddiagupdate = 1000 // update diagnostics every 10 timesteps
	ngriddiagupdate = 1 // update diagnostics every 1 timestep
	nsamppart = 200000 // sample 200000 particles from each species
	naverage=40000 // number of timesteps for grid time averages
//	naverage=10
//	naverage=1 //don't calculate time-average grid diagnostics
	ncomb=4 // what is this for
	histmax=100000
//	Diagnostic
//	{
//		name = number(t)
//		open
//	}
   }
}
