%!PS-Adobe-2.0 EPSF-2.0
%%Title: oopd1_laplace.eps
%%Creator: fig2dev Version 3.2 Patchlevel 3d
%%CreationDate: Wed May  5 06:52:15 2004
%%For: jhammel@darkstar (Jeff Hammel)
%%BoundingBox: 0 0 659 200
%%Magnification: 1.0000
%%EndComments
/$F2psDict 200 dict def
$F2psDict begin
$F2psDict /mtrx matrix put
/col-1 {0 setgray} bind def
/col0 {0.000 0.000 0.000 srgb} bind def
/col1 {0.000 0.000 1.000 srgb} bind def
/col2 {0.000 1.000 0.000 srgb} bind def
/col3 {0.000 1.000 1.000 srgb} bind def
/col4 {1.000 0.000 0.000 srgb} bind def
/col5 {1.000 0.000 1.000 srgb} bind def
/col6 {1.000 1.000 0.000 srgb} bind def
/col7 {1.000 1.000 1.000 srgb} bind def
/col8 {0.000 0.000 0.560 srgb} bind def
/col9 {0.000 0.000 0.690 srgb} bind def
/col10 {0.000 0.000 0.820 srgb} bind def
/col11 {0.530 0.810 1.000 srgb} bind def
/col12 {0.000 0.560 0.000 srgb} bind def
/col13 {0.000 0.690 0.000 srgb} bind def
/col14 {0.000 0.820 0.000 srgb} bind def
/col15 {0.000 0.560 0.560 srgb} bind def
/col16 {0.000 0.690 0.690 srgb} bind def
/col17 {0.000 0.820 0.820 srgb} bind def
/col18 {0.560 0.000 0.000 srgb} bind def
/col19 {0.690 0.000 0.000 srgb} bind def
/col20 {0.820 0.000 0.000 srgb} bind def
/col21 {0.560 0.000 0.560 srgb} bind def
/col22 {0.690 0.000 0.690 srgb} bind def
/col23 {0.820 0.000 0.820 srgb} bind def
/col24 {0.500 0.190 0.000 srgb} bind def
/col25 {0.630 0.250 0.000 srgb} bind def
/col26 {0.750 0.380 0.000 srgb} bind def
/col27 {1.000 0.500 0.500 srgb} bind def
/col28 {1.000 0.630 0.630 srgb} bind def
/col29 {1.000 0.750 0.750 srgb} bind def
/col30 {1.000 0.880 0.880 srgb} bind def
/col31 {1.000 0.840 0.000 srgb} bind def

end
save
newpath 0 200 moveto 0 0 lineto 659 0 lineto 659 200 lineto closepath clip newpath
-26.3 342.0 translate
1 -1 scale

/cp {closepath} bind def
/ef {eofill} bind def
/gr {grestore} bind def
/gs {gsave} bind def
/sa {save} bind def
/rs {restore} bind def
/l {lineto} bind def
/m {moveto} bind def
/rm {rmoveto} bind def
/n {newpath} bind def
/s {stroke} bind def
/sh {show} bind def
/slc {setlinecap} bind def
/slj {setlinejoin} bind def
/slw {setlinewidth} bind def
/srgb {setrgbcolor} bind def
/rot {rotate} bind def
/sc {scale} bind def
/sd {setdash} bind def
/ff {findfont} bind def
/sf {setfont} bind def
/scf {scalefont} bind def
/sw {stringwidth} bind def
/tr {translate} bind def
/tnt {dup dup currentrgbcolor
  4 -2 roll dup 1 exch sub 3 -1 roll mul add
  4 -2 roll dup 1 exch sub 3 -1 roll mul add
  4 -2 roll dup 1 exch sub 3 -1 roll mul add srgb}
  bind def
/shd {dup dup currentrgbcolor 4 -2 roll mul 4 -2 roll mul
  4 -2 roll mul srgb} bind def
/$F2psBegin {$F2psDict begin /$F2psEnteredState save def} def
/$F2psEnd {$F2psEnteredState restore end} def

$F2psBegin
10 setmiterlimit
 0.06000 0.06000 sc
%
% Fig objects follow
%
% Polyline
15.000 slw
 [120] 0 sd
n 7575 2550 m
 7575 5550 l gs col0 s gr  [] 0 sd
% Polyline
 [15 90] 90 sd
n 7425 2550 m
 7425 5550 l gs col0 s gr  [] 0 sd
% Polyline
 [15 90] 90 sd
n 7725 2550 m
 7725 5550 l gs col0 s gr  [] 0 sd
% Polyline
 [120] 0 sd
n 4350 2550 m
 4350 5550 l gs col0 s gr  [] 0 sd
% Polyline
 [15 90] 90 sd
n 4200 2550 m
 4200 5550 l gs col0 s gr  [] 0 sd
% Polyline
 [15 90] 90 sd
n 4500 2550 m
 4500 5550 l gs col0 s gr  [] 0 sd
% Polyline
30.000 slw
n 1200 2400 m
 1200 5400 l gs col0 s gr 
% Polyline
7.500 slw
n 450 5400 m
 11400 5400 l gs col0 s gr 
% Polyline
30.000 slw
n 10725 2400 m
 10725 5400 l gs col0 s gr 
% Polyline
7.500 slw
n 10575 2550 m
 10950 2550 l gs col0 s gr 
% Polyline
n 1050 2550 m
 1425 2550 l gs col0 s gr 
% Polyline
n 1200 5400 m
 10725 2550 l gs col0 s gr 
% Polyline
n 1200 2550 m
 10725 5400 l gs col0 s gr 
/Times-Bold ff 180.00 scf sf
1125 5625 m
gs 1 -1 sc (X) col0 sh gr
/Times-Bold ff 180.00 scf sf
10650 5625 m
gs 1 -1 sc (X) col0 sh gr
/Times-Roman ff 180.00 scf sf
900 2625 m
gs 1 -1 sc (1) col0 sh gr
/Times-Roman ff 180.00 scf sf
975 5325 m
gs 1 -1 sc (0) col0 sh gr
/Times-Roman ff 150.00 scf sf
1275 5700 m
gs 1 -1 sc (L) col0 sh gr
/Times-Roman ff 150.00 scf sf
10800 5700 m
gs 1 -1 sc (R) col0 sh gr
$F2psEnd
rs
