%!PS-Adobe-2.0 EPSF-2.0
%%Title: oopd1_dia
%%Creator: Dia v0.90
%%CreationDate: Mon Dec  1 15:39:54 2003
%%For: jhammel
%%Magnification: 1.0000
%%Orientation: Portrait
%%BoundingBox: 0 0 682 382
%%Pages: 1
%%EndComments
%%BeginProlog
/cp {closepath} bind def
/c {curveto} bind def
/f {fill} bind def
/a {arc} bind def
/ef {eofill} bind def
/ex {exch} bind def
/gr {grestore} bind def
/gs {gsave} bind def
/sa {save} bind def
/rs {restore} bind def
/l {lineto} bind def
/m {moveto} bind def
/rm {rmoveto} bind def
/n {newpath} bind def
/s {stroke} bind def
/sh {show} bind def
/slc {setlinecap} bind def
/slj {setlinejoin} bind def
/slw {setlinewidth} bind def
/srgb {setrgbcolor} bind def
/rot {rotate} bind def
/sc {scale} bind def
/sd {setdash} bind def
/ff {findfont} bind def
/sf {setfont} bind def
/scf {scalefont} bind def
/sw {stringwidth pop} bind def
/tr {translate} bind def

/ellipsedict 8 dict def
ellipsedict /mtrx matrix put
/ellipse
{ ellipsedict begin
   /endangle exch def
   /startangle exch def
   /yrad exch def
   /xrad exch def
   /y exch def
   /x exch def   /savematrix mtrx currentmatrix def
   x y tr xrad yrad sc
   0 0 1 startangle endangle arc
   savematrix setmatrix
   end
} def

/mergeprocs {
dup length
3 -1 roll
dup
length
dup
5 1 roll
3 -1 roll
add
array cvx
dup
3 -1 roll
0 exch
putinterval
dup
4 2 roll
putinterval
} bind def
%%EndProlog

%%BeginSetup
%%EndSetup
7.982334 -7.982334 scale
10.334901 -46.978006 translate

1.000000 1.000000 1.000000 srgb
n 27.756930 -0.808133 m 27.756930 1.091867 l 36.231330 1.091867 l 36.231330 -0.808133 l f
0.100000 slw
[] 0 sd
[] 0 sd
0 slj
0.000000 0.000000 0.000000 srgb
n 27.756930 -0.808133 m 27.756930 1.091867 l 36.231330 1.091867 l 36.231330 -0.808133 l cp s
 [ /xi /xi /xi /xi /xi /xi /xi /xi /xi /xi /xi /xi /xi /xi /xi /xi
 /xi /xi /xi /xi /xi /xi /xi /xi /xi /xi /xi /xi /xi /xi /xi /xi
 /P /l /s /m /D /e /v /S /xi /xi /p /a /t /i /R /g
 /o /n /X /G /r /f /x /c /u /d /F /M /C /A /y /h
 /T /H /B /N /parenleft /E /equal /zero /parenright /V /L /space /I /asciicircum /xi /xi
 /xi /xi /xi /xi /xi /xi /xi /xi /xi /xi /xi /xi /xi /xi /xi /xi
 /xi /xi /xi /xi /xi /xi /xi /xi /xi /xi /xi /xi /xi /xi /xi /xi
 /xi /xi /xi /xi /xi /xi /xi /xi /xi /xi /xi /xi /xi /xi /xi /xi
 /xi /xi /xi /xi /xi /xi /xi /xi /xi /xi /xi /xi /xi /xi /xi /xi
 /xi /xi /xi /xi /xi /xi /xi /xi /xi /xi /xi /xi /xi /xi /xi /xi
 /xi /xi /xi /xi /xi /xi /xi /xi /xi /xi /xi /xi /xi /xi /xi /xi
 /xi /xi /xi /xi /xi /xi /xi /xi /xi /xi /xi /xi /xi /xi /xi /xi
 /xi /xi /xi /xi /xi /xi /xi /xi /xi /xi /xi /xi /xi /xi /xi /xi
 /xi /xi /xi /xi /xi /xi /xi /xi /xi /xi /xi /xi /xi /xi /xi /xi
 /xi /xi /xi /xi /xi /xi /xi /xi /xi /xi /xi /xi /xi /xi /xi /xi
 /xi /xi /xi /xi /xi /xi /xi /xi /xi /xi /xi /xi /xi /xi /xi /xi
] /e0 exch def
/Courier_e0 undefinefont
/Courier_e0
  /Courier findfont
  dup length dict begin
  {1 index /FID ne {def} {pop pop} ifelse} forall
  /Encoding e0 def
  currentdict end
definefont pop
/Courier_e0 ff 0.800000 scf sf
( !"#$%&) sw
2 div 31.994130 ex sub 0.336557 m ( !"#$%&)
 gs 1 -1 sc sh gr
1.000000 1.000000 1.000000 srgb
n 22.849200 7.150000 m 22.849200 9.050000 l 37.650800 9.050000 l 37.650800 7.150000 l f
0.100000 slw
[] 0 sd
[] 0 sd
0 slj
0.000000 0.000000 0.000000 srgb
n 22.849200 7.150000 m 22.849200 9.050000 l 37.650800 9.050000 l 37.650800 7.150000 l cp s
/Courier_e0 ff 0.800000 scf sf
('*+,-+!.%/-01) sw
2 div 30.250000 ex sub 8.294690 m ('*+,-+!.%/-01)
 gs 1 -1 sc sh gr
1.000000 1.000000 1.000000 srgb
n 66.573141 -0.500919 m 66.573141 1.399081 l 75.038741 1.399081 l 75.038741 -0.500919 l f
0.100000 slw
[] 0 sd
[] 0 sd
0 slj
0.000000 0.000000 0.000000 srgb
n 66.573141 -0.500919 m 66.573141 1.399081 l 75.038741 1.399081 l 75.038741 -0.500919 l cp s
/Courier_e0 ff 0.800000 scf sf
(234+5-6) sw
2 div 70.805941 ex sub 0.643771 m (234+5-6)
 gs 1 -1 sc sh gr
1.000000 1.000000 1.000000 srgb
n 3.028198 4.385573 m 3.028198 6.285573 l 11.432198 6.285573 l 11.432198 4.385573 l f
0.100000 slw
[] 0 sd
[] 0 sd
0 slj
0.000000 0.000000 0.000000 srgb
n 3.028198 4.385573 m 3.028198 6.285573 l 11.432198 6.285573 l 11.432198 4.385573 l cp s
/Courier_e0 ff 0.800000 scf sf
('*%7-%") sw
2 div 7.230198 ex sub 5.530263 m ('*%7-%")
 gs 1 -1 sc sh gr
1.000000 1.000000 1.000000 srgb
n 62.283384 6.251344 m 62.283384 8.151344 l 74.911384 8.151344 l 74.911384 6.251344 l f
0.100000 slw
[] 0 sd
[] 0 sd
0 slj
0.000000 0.000000 0.000000 srgb
n 62.283384 6.251344 m 62.283384 8.151344 l 74.911384 8.151344 l 74.911384 6.251344 l cp s
/Courier_e0 ff 0.800000 scf sf
($-+/10",-7") sw
2 div 68.597384 ex sub 7.396034 m ($-+/10",-7")
 gs 1 -1 sc sh gr
1.000000 1.000000 1.000000 srgb
n -4.198338 10.440523 m -4.198338 13.140523 l 5.314462 13.140523 l 5.314462 10.440523 l f
0.100000 slw
[] 0 sd
[] 0 sd
0 slj
0.000000 0.000000 0.000000 srgb
n -4.198338 10.440523 m -4.198338 13.140523 l 5.314462 13.140523 l 5.314462 10.440523 l cp s
/Courier_e0 ff 0.800000 scf sf
( +4,-7!%) sw
2 div 0.558062 ex sub 11.585214 m ( +4,-7!%)
 gs 1 -1 sc sh gr
(3408*") sw
2 div 0.558062 ex sub 12.385214 m (3408*")
 gs 1 -1 sc sh gr
1.000000 1.000000 1.000000 srgb
n 12.338243 12.794130 m 12.338243 14.694130 l 17.644643 14.694130 l 17.644643 12.794130 l f
0.100000 slw
[] 0 sd
[] 0 sd
0 slj
0.000000 0.000000 0.000000 srgb
n 12.338243 12.794130 m 12.338243 14.694130 l 17.644643 14.694130 l 17.644643 12.794130 l cp s
/Courier_e0 ff 0.800000 scf sf
(34-9) sw
2 div 14.991443 ex sub 13.938820 m (34-9)
 gs 1 -1 sc sh gr
1.000000 1.000000 1.000000 srgb
n 30.976071 19.719378 m 30.976071 21.619378 l 38.324071 21.619378 l 38.324071 19.719378 l f
0.100000 slw
[] 0 sd
[] 0 sd
0 slj
0.000000 0.000000 0.000000 srgb
n 30.976071 19.719378 m 30.976071 21.619378 l 38.324071 21.619378 l 38.324071 19.719378 l cp s
/Courier_e0 ff 0.800000 scf sf
(:-%!9") sw
2 div 34.650071 ex sub 20.864068 m (:-%!9")
 gs 1 -1 sc sh gr
1.000000 1.000000 1.000000 srgb
n 47.269678 13.244130 m 47.269678 15.144130 l 51.537678 15.144130 l 51.537678 13.244130 l f
0.100000 slw
[] 0 sd
[] 0 sd
0 slj
0.000000 0.000000 0.000000 srgb
n 47.269678 13.244130 m 47.269678 15.144130 l 51.537678 15.144130 l 51.537678 13.244130 l cp s
/Courier_e0 ff 0.800000 scf sf
(;<<) sw
2 div 49.403678 ex sub 14.388820 m (;<<)
 gs 1 -1 sc sh gr
1.000000 1.000000 1.000000 srgb
n -10.284901 18.433310 m -10.284901 21.933310 l -0.772101 21.933310 l -0.772101 18.433310 l f
0.100000 slw
[] 0 sd
[] 0 sd
0 slj
0.000000 0.000000 0.000000 srgb
n -10.284901 18.433310 m -10.284901 21.933310 l -0.772101 21.933310 l -0.772101 18.433310 l cp s
/Courier_e0 ff 0.800000 scf sf
( +4,-7!%) sw
2 div -5.528501 ex sub 19.578000 m ( +4,-7!%)
 gs 1 -1 sc sh gr
(3408*) sw
2 div -5.528501 ex sub 20.378000 m (3408*)
 gs 1 -1 sc sh gr
(=44+>) sw
2 div -5.528501 ex sub 21.178000 m (=44+>)
 gs 1 -1 sc sh gr
1.000000 1.000000 1.000000 srgb
n -10.244873 44.228006 m -10.244873 46.928006 l -0.732073 46.928006 l -0.732073 44.228006 l f
0.100000 slw
[] 0 sd
[] 0 sd
0 slj
0.000000 0.000000 0.000000 srgb
n -10.244873 44.228006 m -10.244873 46.928006 l -0.732073 46.928006 l -0.732073 44.228006 l cp s
/Courier_e0 ff 0.800000 scf sf
( +4,-7!%) sw
2 div -5.488473 ex sub 45.372696 m ( +4,-7!%)
 gs 1 -1 sc sh gr
(<!+"") sw
2 div -5.488473 ex sub 46.172696 m (<!+"")
 gs 1 -1 sc sh gr
1.000000 1.000000 1.000000 srgb
n 44.755654 18.263508 m 44.755654 20.163508 l 55.350854 20.163508 l 55.350854 18.263508 l f
0.100000 slw
[] 0 sd
[] 0 sd
0 slj
0.000000 0.000000 0.000000 srgb
n 44.755654 18.263508 m 44.755654 20.163508 l 55.350854 20.163508 l 55.350854 18.263508 l cp s
/Courier_e0 ff 0.800000 scf sf
(<?%#-",4>) sw
2 div 50.053254 ex sub 19.408198 m (<?%#-",4>)
 gs 1 -1 sc sh gr
1.000000 1.000000 1.000000 srgb
n 56.679907 13.000000 m 56.679907 15.700000 l 67.195907 15.700000 l 67.195907 13.000000 l f
0.100000 slw
[] 0 sd
[] 0 sd
0 slj
0.000000 0.000000 0.000000 srgb
n 56.679907 13.000000 m 56.679907 15.700000 l 67.195907 15.700000 l 67.195907 13.000000 l cp s
/Courier_e0 ff 0.800000 scf sf
(@-#%) sw
2 div 61.937907 ex sub 14.144690 m (@-#%)
 gs 1 -1 sc sh gr
(A-",04-%") sw
2 div 61.937907 ex sub 14.944690 m (A-",04-%")
 gs 1 -1 sc sh gr
1.000000 1.000000 1.000000 srgb
n 62.264006 18.572985 m 62.264006 21.272985 l 74.892006 21.272985 l 74.892006 18.572985 l f
0.100000 slw
[] 0 sd
[] 0 sd
0 slj
0.000000 0.000000 0.000000 srgb
n 62.264006 18.572985 m 62.264006 21.272985 l 74.892006 21.272985 l 74.892006 18.572985 l cp s
/Courier_e0 ff 0.800000 scf sf
('*%7,4+!) sw
2 div 68.578006 ex sub 19.717675 m ('*%7,4+!)
 gs 1 -1 sc sh gr
($-+/10",-7") sw
2 div 68.578006 ex sub 20.517675 m ($-+/10",-7")
 gs 1 -1 sc sh gr
1.000000 1.000000 1.000000 srgb
n 10.816192 17.340099 m 10.816192 19.240099 l 22.388192 19.240099 l 22.388192 17.340099 l f
0.100000 slw
[] 0 sd
[] 0 sd
0 slj
0.000000 0.000000 0.000000 srgb
n 10.816192 17.340099 m 10.816192 19.240099 l 22.388192 19.240099 l 22.388192 17.340099 l cp s
/Courier_e0 ff 0.800000 scf sf
(B0819+4-%") sw
2 div 16.602192 ex sub 18.484789 m (B0819+4-%")
 gs 1 -1 sc sh gr
1.000000 1.000000 1.000000 srgb
n 34.640751 28.572560 m 34.640751 31.272560 l 43.106351 31.272560 l 43.106351 28.572560 l f
0.100000 slw
[] 0 sd
[] 0 sd
0 slj
0.000000 0.000000 0.000000 srgb
n 34.640751 28.572560 m 34.640751 31.272560 l 43.106351 31.272560 l 43.106351 28.572560 l cp s
/Courier_e0 ff 0.800000 scf sf
( 0-""01) sw
2 div 38.873551 ex sub 29.717251 m ( 0-""01)
 gs 1 -1 sc sh gr
('0!&%4) sw
2 div 38.873551 ex sub 30.517251 m ('0!&%4)
 gs 1 -1 sc sh gr
1.000000 1.000000 1.000000 srgb
n 45.822145 29.174859 m 45.822145 31.874859 l 53.205345 31.874859 l 53.205345 29.174859 l f
0.100000 slw
[] 0 sd
[] 0 sd
0 slj
0.000000 0.000000 0.000000 srgb
n 45.822145 29.174859 m 45.822145 31.874859 l 53.205345 31.874859 l 53.205345 29.174859 l cp s
/Courier_e0 ff 0.800000 scf sf
($-4%7,) sw
2 div 49.513745 ex sub 30.319549 m ($-4%7,)
 gs 1 -1 sc sh gr
('0!&%) sw
2 div 49.513745 ex sub 31.119549 m ('0!&%)
 gs 1 -1 sc sh gr
1.000000 1.000000 1.000000 srgb
n 2.852949 21.866231 m 2.852949 23.766231 l 13.430549 23.766231 l 13.430549 21.866231 l f
0.100000 slw
[] 0 sd
[] 0 sd
0 slj
0.000000 0.000000 0.000000 srgb
n 2.852949 21.866231 m 2.852949 23.766231 l 13.430549 23.766231 l 13.430549 21.866231 l cp s
/Courier_e0 ff 0.800000 scf sf
(<01987,04) sw
2 div 8.141749 ex sub 23.010921 m (<01987,04)
 gs 1 -1 sc sh gr
0.100000 slw
[] 0 sd
[] 0 sd
0 slc
n 30.250000 7.150000 m 31.994130 1.091867 l s
0.100000 slw
[] 0 sd
[] 0 sd
0 slc
n 14.991443 12.794130 m 26.549600 9.050000 l s
0.100000 slw
[] 0 sd
[] 0 sd
0 slc
n 9.331198 4.385573 m 27.756930 0.141867 l s
0.100000 slw
[] 0 sd
[] 0 sd
0 slc
n 11.432198 5.335573 m 22.849200 8.100000 l s
0.100000 slw
[] 0 sd
[] 0 sd
0 slc
n 47.269678 14.194130 m 37.650800 8.100000 l s
0.100000 slw
[] 0 sd
[] 0 sd
0 slc
n 36.231330 0.141867 m 62.283384 7.201344 l s
0.100000 slw
[] 0 sd
[] 0 sd
0 slc
n 61.937907 13.000000 m 65.440384 8.151344 l s
0.100000 slw
[] 0 sd
[] 0 sd
0 slc
n 68.578006 18.572985 m 68.597384 8.151344 l s
0.100000 slw
[] 0 sd
[] 0 sd
0 slc
n 49.403678 15.144130 m 50.053254 18.263508 l s
0.100000 slw
[] 0 sd
[] 0 sd
0 slc
n 34.650071 19.719378 m 33.950400 9.050000 l s
0.100000 slw
[] 0 sd
[] 0 sd
0 slc
n 16.602192 17.340099 m 30.250000 9.050000 l s
0.100000 slw
[] 0 sd
[] 0 sd
0 slc
n 32.813071 21.619378 m 38.873551 28.572560 l s
0.100000 slw
[] 0 sd
[] 0 sd
0 slc
n 8.141749 21.866231 m 13.709192 19.240099 l s
0.100000 slw
[] 0 sd
[] 0 sd
0 slc
n 47.404454 18.263508 m 37.650800 9.050000 l s
0.100000 slw
[] 0 sd
[] 0 sd
0 slc
n -1.820138 13.140523 m -3.150301 18.433310 l s
0.100000 slw
[] 0 sd
[] 0 sd
0 slc
n 0.558062 13.140523 m -3.110273 44.228006 l s
0.100000 slw
[] 0 sd
[] 0 sd
0 slc
n 7.230198 6.285573 m 0.558062 10.440523 l s
1.000000 1.000000 1.000000 srgb
n 22.630779 40.112342 m 22.630779 42.012342 l 34.246779 42.012342 l 34.246779 40.112342 l f
0.100000 slw
[] 0 sd
[] 0 sd
0 slj
0.000000 0.000000 0.000000 srgb
n 22.630779 40.112342 m 22.630779 42.012342 l 34.246779 42.012342 l 34.246779 40.112342 l cp s
/Courier_e0 ff 0.800000 scf sf
($-%!%7,4-7) sw
2 div 28.438779 ex sub 41.257032 m ($-%!%7,4-7)
 gs 1 -1 sc sh gr
1.000000 1.000000 1.000000 srgb
n 35.238512 40.136670 m 35.238512 42.836670 l 43.704112 42.836670 l 43.704112 40.136670 l f
0.100000 slw
[] 0 sd
[] 0 sd
0 slj
0.000000 0.000000 0.000000 srgb
n 35.238512 40.136670 m 35.238512 42.836670 l 43.704112 42.836670 l 43.704112 40.136670 l cp s
/Courier_e0 ff 0.800000 scf sf
(C%8#+11) sw
2 div 39.471312 ex sub 41.281360 m (C%8#+11)
 gs 1 -1 sc sh gr
(DEFGH) sw
2 div 39.471312 ex sub 42.081360 m (DEFGH)
 gs 1 -1 sc sh gr
0.100000 slw
[] 0 sd
[] 0 sd
0 slc
n 28.438779 40.112342 m 16.602192 19.240099 l s
1.000000 1.000000 1.000000 srgb
n 54.648695 28.750531 m 54.648695 31.450531 l 59.937495 31.450531 l 59.937495 28.750531 l f
0.100000 slw
[] 0 sd
[] 0 sd
0 slj
0.000000 0.000000 0.000000 srgb
n 54.648695 28.750531 m 54.648695 31.450531 l 59.937495 31.450531 l 59.937495 28.750531 l cp s
/Courier_e0 ff 0.800000 scf sf
(@4%%) sw
2 div 57.293095 ex sub 29.895221 m (@4%%)
 gs 1 -1 sc sh gr
(<09%) sw
2 div 57.293095 ex sub 30.695221 m (<09%)
 gs 1 -1 sc sh gr
1.000000 1.000000 1.000000 srgb
n 61.900045 29.033416 m 61.900045 31.733416 l 68.244845 31.733416 l 68.244845 29.033416 l f
0.100000 slw
[] 0 sd
[] 0 sd
0 slj
0.000000 0.000000 0.000000 srgb
n 61.900045 29.033416 m 61.900045 31.733416 l 68.244845 31.733416 l 68.244845 29.033416 l cp s
/Courier_e0 ff 0.800000 scf sf
(::@) sw
2 div 65.072445 ex sub 30.178107 m (::@)
 gs 1 -1 sc sh gr
('0!&%) sw
2 div 65.072445 ex sub 30.978107 m ('0!&%)
 gs 1 -1 sc sh gr
1.000000 1.000000 1.000000 srgb
n 70.043531 28.938367 m 70.043531 30.838367 l 73.255531 30.838367 l 73.255531 28.938367 l f
0.100000 slw
[] 0 sd
[] 0 sd
0 slj
0.000000 0.000000 0.000000 srgb
n 70.043531 28.938367 m 70.043531 30.838367 l 73.255531 30.838367 l 73.255531 28.938367 l cp s
/Courier_e0 ff 0.800000 scf sf
(E;) sw
2 div 71.649531 ex sub 30.083057 m (E;)
 gs 1 -1 sc sh gr
0.100000 slw
[] 0 sd
[] 0 sd
0 slc
n 34.650071 21.619378 m 47.667945 29.174859 l s
1.000000 1.000000 1.000000 srgb
n 3.639263 25.826627 m 3.639263 27.726627 l 12.078463 27.726627 l 12.078463 25.826627 l f
0.100000 slw
[] 0 sd
[] 0 sd
0 slj
0.000000 0.000000 0.000000 srgb
n 3.639263 25.826627 m 3.639263 27.726627 l 12.078463 27.726627 l 12.078463 25.826627 l cp s
/Courier_e0 ff 0.800000 scf sf
(<-478-,) sw
2 div 7.858863 ex sub 26.971317 m (<-478-,)
 gs 1 -1 sc sh gr
0.100000 slw
[] 0 sd
[] 0 sd
0 slc
n 7.858863 25.826627 m 8.141749 23.766231 l s
1.000000 1.000000 1.000000 srgb
n -1.532196 36.671323 m -1.532196 39.371323 l 6.924604 39.371323 l 6.924604 36.671323 l f
0.100000 slw
[] 0 sd
[] 0 sd
0 slj
0.000000 0.000000 0.000000 srgb
n -1.532196 36.671323 m -1.532196 39.371323 l 6.924604 39.371323 l 6.924604 36.671323 l cp s
/Courier_e0 ff 0.800000 scf sf
(I0!,+/%) sw
2 div 2.696204 ex sub 37.816014 m (I0!,+/%)
 gs 1 -1 sc sh gr
('0847%) sw
2 div 2.696204 ex sub 38.616014 m ('0847%)
 gs 1 -1 sc sh gr
0.100000 slw
[] 0 sd
[] 0 sd
0 slc
n 36.487071 21.619378 m 57.293095 28.750531 l s
0.100000 slw
[] 0 sd
[] 0 sd
0 slc
n 38.324071 21.619378 m 65.072445 29.033416 l s
0.100000 slw
[] 0 sd
[] 0 sd
0 slc
n 38.324071 21.144378 m 70.846531 28.938367 l s
0.100000 slw
[] 0 sd
[] 0 sd
0 slc
n 37.354912 40.136670 m 16.602192 19.240099 l s
1.000000 1.000000 1.000000 srgb
n 7.741102 36.742045 m 7.741102 39.442045 l 16.180302 39.442045 l 16.180302 36.742045 l f
0.100000 slw
[] 0 sd
[] 0 sd
0 slj
0.000000 0.000000 0.000000 srgb
n 7.741102 36.742045 m 7.741102 39.442045 l 16.180302 39.442045 l 16.180302 36.742045 l cp s
/Courier_e0 ff 0.800000 scf sf
(<844%1,) sw
2 div 11.960702 ex sub 37.886735 m (<844%1,)
 gs 1 -1 sc sh gr
('0847%) sw
2 div 11.960702 ex sub 38.686735 m ('0847%)
 gs 1 -1 sc sh gr
1.000000 1.000000 1.000000 srgb
n 18.915077 44.167788 m 18.915077 46.867788 l 27.354277 46.867788 l 27.354277 44.167788 l f
0.100000 slw
[] 0 sd
[] 0 sd
0 slj
0.000000 0.000000 0.000000 srgb
n 18.915077 44.167788 m 18.915077 46.867788 l 27.354277 46.867788 l 27.354277 44.167788 l cp s
/Courier_e0 ff 0.800000 scf sf
(.J<) sw
2 div 23.134677 ex sub 45.312478 m (.J<)
 gs 1 -1 sc sh gr
(<-478-,) sw
2 div 23.134677 ex sub 46.112478 m (<-478-,)
 gs 1 -1 sc sh gr
0.100000 slw
[] 0 sd
[] 0 sd
0 slc
n 23.134677 44.167788 m 9.968663 27.726627 l s
0.100000 slw
[] 0 sd
[] 0 sd
0 slc
n 11.960702 36.742045 m 7.858863 27.726627 l s
0.100000 slw
[] 0 sd
[] 0 sd
0 slc
n 2.696204 36.671323 m 5.749063 27.726627 l s
1.000000 1.000000 1.000000 srgb
n 37.548166 35.939781 m 37.548166 37.839781 l 47.052166 37.839781 l 47.052166 35.939781 l f
0.100000 slw
[] 0 sd
[] 0 sd
0 slj
0.000000 0.000000 0.000000 srgb
n 37.548166 35.939781 m 37.548166 37.839781 l 47.052166 37.839781 l 47.052166 35.939781 l cp s
/Courier_e0 ff 0.800000 scf sf
( %4-09-7) sw
2 div 42.300166 ex sub 37.084472 m ( %4-09-7)
 gs 1 -1 sc sh gr
0.100000 slw
[] 0 sd
[] 0 sd
0 slc
n 37.548166 35.939781 m 19.495192 19.240099 l s
0.100000 slw
[1.000000] 0 sd
[1.000000] 0 sd
0 slc
n 36.231330 -0.333133 m 66.573141 0.449081 l s
0.100000 slw
[1.000000] 0 sd
[1.000000] 0 sd
0 slc
n 70.805941 1.399081 m 71.754384 6.251344 l s
0.100000 slw
[1.000000] 0 sd
[1.000000] 0 sd
0 slc
n 10.816192 17.340099 m 5.314462 13.140523 l s
0.100000 slw
[1.000000] 0 sd
[1.000000] 0 sd
0 slc
n 30.976071 20.194378 m 22.388192 18.765099 l s
0.200000 slw
[1.000000 0.400000 0.200000 0.400000] 0 sd
[1.000000 0.400000 0.200000 0.400000] 0 sd
0 slc
0.458460 0.931818 0.302849 srgb
n -9.831378 42.396147 m 17.396346 42.396147 l s
0.200000 slw
[1.000000 0.400000 0.200000 0.400000] 0 sd
[1.000000 0.400000 0.200000 0.400000] 0 sd
0 slj
0 slc
n 17.467068 42.466868 m 29.560420 34.899682 l s
0.200000 slw
[1.000000 0.400000 0.200000 0.400000] 0 sd
[1.000000 0.400000 0.200000 0.400000] 0 sd
0 slj
0 slc
n 29.560420 35.041125 m 43.351086 33.626698 l s
0.200000 slw
[1.000000 0.400000 0.200000 0.400000] 0 sd
[1.000000 0.400000 0.200000 0.400000] 0 sd
0 slc
n 43.492528 33.697419 m 44.694792 25.635184 l s
0.200000 slw
[1.000000 0.400000 0.200000 0.400000] 0 sd
[1.000000 0.400000 0.200000 0.400000] 0 sd
0 slc
n 44.765513 25.705905 m 41.795216 16.441407 l s
0.200000 slw
[1.000000 0.400000 0.200000 0.400000] 0 sd
[1.000000 0.400000 0.200000 0.400000] 0 sd
0 slc
n 41.865937 16.441407 m 51.342600 7.035466 l s
0.200000 slw
[1.000000 0.400000 0.200000 0.400000] 0 sd
[1.000000 0.400000 0.200000 0.400000] 0 sd
0 slc
n 51.413321 7.106188 m 64.567494 3.640841 l s
0.200000 slw
[1.000000 0.400000 0.200000 0.400000] 0 sd
[1.000000 0.400000 0.200000 0.400000] 0 sd
0 slc
n 64.567494 3.570119 m 74.680649 3.499398 l s
0.000000 0.000000 0.000000 srgb
/Courier_e0 ff 0.800000 scf sf
( +4,-7!%KB<") sw
2 div 8.131848 ex sub 14.249045 m ( +4,-7!%KB<")
 gs 1 -1 sc sh gr
/Courier_e0 ff 0.800000 scf sf
(:-%!9KB<") sw
2 div 27.014451 ex sub 18.916655 m (:-%!9KB<")
 gs 1 -1 sc sh gr
0.308714 0.704545 0.318009 srgb
/Courier_e0 ff 1.300000 scf sf
(L#*!%#%1,%9KM) sw
2 div 48.372302 ex sub 6.681859 m (L#*!%#%1,%9KM)
 gs 1 -1 sc sh gr
0.060227 0.401515 0.000000 srgb
/Courier_e0 ff 1.300000 scf sf
(&KC0,) sw
2 div 54.595782 ex sub 8.096287 m (&KC0,)
 gs 1 -1 sc sh gr
(L#*!%#%1,%9) sw
2 div 54.595782 ex sub 9.396287 m (L#*!%#%1,%9)
 gs 1 -1 sc sh gr
1.000000 1.000000 1.000000 srgb
n 35.545127 13.733274 m 35.545127 15.633274 l 40.851527 15.633274 l 40.851527 13.733274 l f
0.100000 slw
[] 0 sd
[] 0 sd
0 slj
0.000000 0.000000 0.000000 srgb
n 35.545127 13.733274 m 35.545127 15.633274 l 40.851527 15.633274 l 40.851527 13.733274 l cp s
/Courier_e0 ff 0.800000 scf sf
(J0+9) sw
2 div 38.198327 ex sub 14.877964 m (J0+9)
 gs 1 -1 sc sh gr
0.100000 slw
[] 0 sd
[] 0 sd
0 slc
n 38.198327 13.733274 m 33.950400 9.050000 l s
showpage
