%!PS-Adobe-2.0 EPSF-2.0
%%Title: oopd1_poisson.eps
%%Creator: fig2dev Version 3.2 Patchlevel 3d
%%CreationDate: Wed May  5 06:58:37 2004
%%For: jhammel@darkstar (Jeff Hammel)
%%BoundingBox: 0 0 659 209
%%Magnification: 1.0000
%%EndComments
/$F2psDict 200 dict def
$F2psDict begin
$F2psDict /mtrx matrix put
/col-1 {0 setgray} bind def
/col0 {0.000 0.000 0.000 srgb} bind def
/col1 {0.000 0.000 1.000 srgb} bind def
/col2 {0.000 1.000 0.000 srgb} bind def
/col3 {0.000 1.000 1.000 srgb} bind def
/col4 {1.000 0.000 0.000 srgb} bind def
/col5 {1.000 0.000 1.000 srgb} bind def
/col6 {1.000 1.000 0.000 srgb} bind def
/col7 {1.000 1.000 1.000 srgb} bind def
/col8 {0.000 0.000 0.560 srgb} bind def
/col9 {0.000 0.000 0.690 srgb} bind def
/col10 {0.000 0.000 0.820 srgb} bind def
/col11 {0.530 0.810 1.000 srgb} bind def
/col12 {0.000 0.560 0.000 srgb} bind def
/col13 {0.000 0.690 0.000 srgb} bind def
/col14 {0.000 0.820 0.000 srgb} bind def
/col15 {0.000 0.560 0.560 srgb} bind def
/col16 {0.000 0.690 0.690 srgb} bind def
/col17 {0.000 0.820 0.820 srgb} bind def
/col18 {0.560 0.000 0.000 srgb} bind def
/col19 {0.690 0.000 0.000 srgb} bind def
/col20 {0.820 0.000 0.000 srgb} bind def
/col21 {0.560 0.000 0.560 srgb} bind def
/col22 {0.690 0.000 0.690 srgb} bind def
/col23 {0.820 0.000 0.820 srgb} bind def
/col24 {0.500 0.190 0.000 srgb} bind def
/col25 {0.630 0.250 0.000 srgb} bind def
/col26 {0.750 0.380 0.000 srgb} bind def
/col27 {1.000 0.500 0.500 srgb} bind def
/col28 {1.000 0.630 0.630 srgb} bind def
/col29 {1.000 0.750 0.750 srgb} bind def
/col30 {1.000 0.880 0.880 srgb} bind def
/col31 {1.000 0.840 0.000 srgb} bind def

end
save
newpath 0 209 moveto 0 0 lineto 659 0 lineto 659 209 lineto closepath clip newpath
-26.3 351.0 translate
1 -1 scale

/cp {closepath} bind def
/ef {eofill} bind def
/gr {grestore} bind def
/gs {gsave} bind def
/sa {save} bind def
/rs {restore} bind def
/l {lineto} bind def
/m {moveto} bind def
/rm {rmoveto} bind def
/n {newpath} bind def
/s {stroke} bind def
/sh {show} bind def
/slc {setlinecap} bind def
/slj {setlinejoin} bind def
/slw {setlinewidth} bind def
/srgb {setrgbcolor} bind def
/rot {rotate} bind def
/sc {scale} bind def
/sd {setdash} bind def
/ff {findfont} bind def
/sf {setfont} bind def
/scf {scalefont} bind def
/sw {stringwidth} bind def
/tr {translate} bind def
/tnt {dup dup currentrgbcolor
  4 -2 roll dup 1 exch sub 3 -1 roll mul add
  4 -2 roll dup 1 exch sub 3 -1 roll mul add
  4 -2 roll dup 1 exch sub 3 -1 roll mul add srgb}
  bind def
/shd {dup dup currentrgbcolor 4 -2 roll mul 4 -2 roll mul
  4 -2 roll mul srgb} bind def
/$F2psBegin {$F2psDict begin /$F2psEnteredState save def} def
/$F2psEnd {$F2psEnteredState restore end} def

$F2psBegin
10 setmiterlimit
 0.06000 0.06000 sc
%
% Fig objects follow
%
% Polyline
7.500 slw
 [120] 0 sd
n 7575 4088 m
 7575 5588 l gs col0 s gr  [] 0 sd
% Polyline
 [15 90] 90 sd
n 7425 4088 m
 7425 5588 l gs col0 s gr  [] 0 sd
% Polyline
 [15 90] 90 sd
n 7725 4088 m
 7725 5588 l gs col0 s gr  [] 0 sd
% Polyline
 [120] 0 sd
n 4350 3209 m
 4350 5566 l gs col0 s gr  [] 0 sd
% Polyline
 [15 90] 90 sd
n 4200 3209 m
 4200 5566 l gs col0 s gr  [] 0 sd
% Polyline
 [15 90] 90 sd
n 4500 3209 m
 4500 5566 l gs col0 s gr  [] 0 sd
% Polyline
30.000 slw
n 1200 2400 m
 1200 5400 l gs col0 s gr 
% Polyline
7.500 slw
n 450 5400 m
 11400 5400 l gs col0 s gr 
% Polyline
30.000 slw
n 10725 2400 m
 10725 5400 l gs col0 s gr 
% Polyline
7.500 slw
n 1200 5400 m
 4350 3225 l gs col0 s gr 
% Polyline
n 7575 4050 m
 10725 5400 l gs col0 s gr 
% Polyline
2 slj
n 4350 3225 m 4353 3223 l 4358 3220 l 4369 3213 l 4384 3203 l 4404 3190 l
 4429 3174 l 4457 3156 l 4487 3136 l 4519 3116 l 4550 3096 l
 4581 3077 l 4611 3059 l 4639 3041 l 4666 3025 l 4691 3011 l
 4715 2997 l 4738 2984 l 4760 2971 l 4782 2960 l 4803 2949 l
 4825 2938 l 4845 2928 l 4866 2918 l 4887 2908 l 4909 2898 l
 4931 2888 l 4955 2879 l 4979 2869 l 5004 2860 l 5029 2851 l
 5056 2842 l 5083 2834 l 5110 2826 l 5138 2819 l 5167 2813 l
 5195 2807 l 5224 2801 l 5252 2797 l 5281 2793 l 5309 2790 l
 5337 2788 l 5365 2787 l 5393 2786 l 5422 2786 l 5450 2788 l
 5475 2789 l 5500 2791 l 5526 2794 l 5552 2798 l 5579 2802 l
 5607 2807 l 5635 2813 l 5664 2820 l 5694 2827 l 5724 2836 l
 5754 2845 l 5785 2856 l 5816 2867 l 5847 2879 l 5877 2893 l
 5908 2906 l 5938 2921 l 5968 2936 l 5997 2953 l 6025 2969 l
 6053 2987 l 6080 3005 l 6106 3023 l 6131 3042 l 6156 3062 l
 6180 3082 l 6203 3103 l 6225 3125 l 6245 3146 l 6265 3168 l
 6285 3190 l 6305 3214 l 6324 3238 l 6344 3264 l 6363 3290 l
 6382 3317 l 6401 3344 l 6419 3373 l 6438 3402 l 6456 3431 l
 6474 3460 l 6492 3490 l 6509 3520 l 6526 3549 l 6543 3579 l
 6559 3608 l 6575 3636 l 6590 3664 l 6604 3691 l 6618 3717 l
 6632 3742 l 6644 3766 l 6657 3789 l 6669 3811 l 6680 3831 l
 6691 3851 l 6702 3870 l 6713 3888 l 6726 3910 l 6740 3931 l
 6753 3951 l 6767 3969 l 6780 3986 l 6793 4001 l 6807 4015 l
 6820 4028 l 6833 4039 l 6846 4049 l 6859 4058 l 6872 4065 l
 6884 4071 l 6897 4076 l 6909 4079 l 6921 4081 l 6932 4082 l
 6944 4082 l 6955 4082 l 6966 4080 l 6977 4078 l 6988 4075 l
 7003 4070 l 7018 4064 l 7035 4058 l 7052 4050 l 7070 4042 l
 7088 4033 l 7107 4024 l 7127 4014 l 7146 4005 l 7166 3996 l
 7185 3988 l 7204 3981 l 7222 3975 l 7240 3969 l 7258 3965 l
 7275 3963 l 7292 3961 l 7310 3961 l 7328 3963 l 7348 3966 l
 7369 3971 l 7392 3977 l 7417 3986 l 7444 3995 l 7472 4006 l
 7500 4018 l 7525 4028 l 7546 4037 l 7562 4044 l 7571 4048 l
 7574 4050 l
 7575 4050 l gs col0 s gr 
/Times-Bold ff 180.00 scf sf
1125 5625 m
gs 1 -1 sc (X) col0 sh gr
/Times-Bold ff 180.00 scf sf
10650 5625 m
gs 1 -1 sc (X) col0 sh gr
/Times-Roman ff 150.00 scf sf
1275 5700 m
gs 1 -1 sc (L) col0 sh gr
/Times-Roman ff 150.00 scf sf
10800 5700 m
gs 1 -1 sc (R) col0 sh gr
/Times-Bold ff 180.00 scf sf
4275 5775 m
gs 1 -1 sc (X) col0 sh gr
/Times-Bold ff 180.00 scf sf
7500 5775 m
gs 1 -1 sc (X) col0 sh gr
/Times-Roman ff 150.00 scf sf
4425 5850 m
gs 1 -1 sc (S1) col0 sh gr
/Times-Roman ff 150.00 scf sf
7650 5850 m
gs 1 -1 sc (S2) col0 sh gr
$F2psEnd
rs
