%!PS-Adobe-2.0 EPSF-2.0
%%Title: voltage_source.eps
%%Creator: fig2dev Version 3.2 Patchlevel 4
%%CreationDate: Wed Oct 12 09:37:35 2005
%%For: jhammel@koala (Jeff Hammel)
%%BoundingBox: 0 0 303 323
%%Magnification: 1.0000
%%EndComments
/$F2psDict 200 dict def
$F2psDict begin
$F2psDict /mtrx matrix put
/col-1 {0 setgray} bind def
/col0 {0.000 0.000 0.000 srgb} bind def
/col1 {0.000 0.000 1.000 srgb} bind def
/col2 {0.000 1.000 0.000 srgb} bind def
/col3 {0.000 1.000 1.000 srgb} bind def
/col4 {1.000 0.000 0.000 srgb} bind def
/col5 {1.000 0.000 1.000 srgb} bind def
/col6 {1.000 1.000 0.000 srgb} bind def
/col7 {1.000 1.000 1.000 srgb} bind def
/col8 {0.000 0.000 0.560 srgb} bind def
/col9 {0.000 0.000 0.690 srgb} bind def
/col10 {0.000 0.000 0.820 srgb} bind def
/col11 {0.530 0.810 1.000 srgb} bind def
/col12 {0.000 0.560 0.000 srgb} bind def
/col13 {0.000 0.690 0.000 srgb} bind def
/col14 {0.000 0.820 0.000 srgb} bind def
/col15 {0.000 0.560 0.560 srgb} bind def
/col16 {0.000 0.690 0.690 srgb} bind def
/col17 {0.000 0.820 0.820 srgb} bind def
/col18 {0.560 0.000 0.000 srgb} bind def
/col19 {0.690 0.000 0.000 srgb} bind def
/col20 {0.820 0.000 0.000 srgb} bind def
/col21 {0.560 0.000 0.560 srgb} bind def
/col22 {0.690 0.000 0.690 srgb} bind def
/col23 {0.820 0.000 0.820 srgb} bind def
/col24 {0.500 0.190 0.000 srgb} bind def
/col25 {0.630 0.250 0.000 srgb} bind def
/col26 {0.750 0.380 0.000 srgb} bind def
/col27 {1.000 0.500 0.500 srgb} bind def
/col28 {1.000 0.630 0.630 srgb} bind def
/col29 {1.000 0.750 0.750 srgb} bind def
/col30 {1.000 0.880 0.880 srgb} bind def
/col31 {1.000 0.840 0.000 srgb} bind def

end
save
newpath 0 323 moveto 0 0 lineto 303 0 lineto 303 323 lineto closepath clip newpath
-130.5 446.2 translate
1 -1 scale

/cp {closepath} bind def
/ef {eofill} bind def
/gr {grestore} bind def
/gs {gsave} bind def
/sa {save} bind def
/rs {restore} bind def
/l {lineto} bind def
/m {moveto} bind def
/rm {rmoveto} bind def
/n {newpath} bind def
/s {stroke} bind def
/sh {show} bind def
/slc {setlinecap} bind def
/slj {setlinejoin} bind def
/slw {setlinewidth} bind def
/srgb {setrgbcolor} bind def
/rot {rotate} bind def
/sc {scale} bind def
/sd {setdash} bind def
/ff {findfont} bind def
/sf {setfont} bind def
/scf {scalefont} bind def
/sw {stringwidth} bind def
/tr {translate} bind def
/tnt {dup dup currentrgbcolor
  4 -2 roll dup 1 exch sub 3 -1 roll mul add
  4 -2 roll dup 1 exch sub 3 -1 roll mul add
  4 -2 roll dup 1 exch sub 3 -1 roll mul add srgb}
  bind def
/shd {dup dup currentrgbcolor 4 -2 roll mul 4 -2 roll mul
  4 -2 roll mul srgb} bind def
/reencdict 12 dict def /ReEncode { reencdict begin
/newcodesandnames exch def /newfontname exch def /basefontname exch def
/basefontdict basefontname findfont def /newfont basefontdict maxlength dict def
basefontdict { exch dup /FID ne { dup /Encoding eq
{ exch dup length array copy newfont 3 1 roll put }
{ exch newfont 3 1 roll put } ifelse } { pop pop } ifelse } forall
newfont /FontName newfontname put newcodesandnames aload pop
128 1 255 { newfont /Encoding get exch /.notdef put } for
newcodesandnames length 2 idiv { newfont /Encoding get 3 1 roll put } repeat
newfontname newfont definefont pop end } def
/isovec [
8#055 /minus 8#200 /grave 8#201 /acute 8#202 /circumflex 8#203 /tilde
8#204 /macron 8#205 /breve 8#206 /dotaccent 8#207 /dieresis
8#210 /ring 8#211 /cedilla 8#212 /hungarumlaut 8#213 /ogonek 8#214 /caron
8#220 /dotlessi 8#230 /oe 8#231 /OE
8#240 /space 8#241 /exclamdown 8#242 /cent 8#243 /sterling
8#244 /currency 8#245 /yen 8#246 /brokenbar 8#247 /section 8#250 /dieresis
8#251 /copyright 8#252 /ordfeminine 8#253 /guillemotleft 8#254 /logicalnot
8#255 /hyphen 8#256 /registered 8#257 /macron 8#260 /degree 8#261 /plusminus
8#262 /twosuperior 8#263 /threesuperior 8#264 /acute 8#265 /mu 8#266 /paragraph
8#267 /periodcentered 8#270 /cedilla 8#271 /onesuperior 8#272 /ordmasculine
8#273 /guillemotright 8#274 /onequarter 8#275 /onehalf
8#276 /threequarters 8#277 /questiondown 8#300 /Agrave 8#301 /Aacute
8#302 /Acircumflex 8#303 /Atilde 8#304 /Adieresis 8#305 /Aring
8#306 /AE 8#307 /Ccedilla 8#310 /Egrave 8#311 /Eacute
8#312 /Ecircumflex 8#313 /Edieresis 8#314 /Igrave 8#315 /Iacute
8#316 /Icircumflex 8#317 /Idieresis 8#320 /Eth 8#321 /Ntilde 8#322 /Ograve
8#323 /Oacute 8#324 /Ocircumflex 8#325 /Otilde 8#326 /Odieresis 8#327 /multiply
8#330 /Oslash 8#331 /Ugrave 8#332 /Uacute 8#333 /Ucircumflex
8#334 /Udieresis 8#335 /Yacute 8#336 /Thorn 8#337 /germandbls 8#340 /agrave
8#341 /aacute 8#342 /acircumflex 8#343 /atilde 8#344 /adieresis 8#345 /aring
8#346 /ae 8#347 /ccedilla 8#350 /egrave 8#351 /eacute
8#352 /ecircumflex 8#353 /edieresis 8#354 /igrave 8#355 /iacute
8#356 /icircumflex 8#357 /idieresis 8#360 /eth 8#361 /ntilde 8#362 /ograve
8#363 /oacute 8#364 /ocircumflex 8#365 /otilde 8#366 /odieresis 8#367 /divide
8#370 /oslash 8#371 /ugrave 8#372 /uacute 8#373 /ucircumflex
8#374 /udieresis 8#375 /yacute 8#376 /thorn 8#377 /ydieresis] def
/Times-Roman /Times-Roman-iso isovec ReEncode
/$F2psBegin {$F2psDict begin /$F2psEnteredState save def} def
/$F2psEnd {$F2psEnteredState restore end} def

$F2psBegin
10 setmiterlimit
0 slj 0 slc
 0.06000 0.06000 sc
%
% Fig objects follow
%
% 
% here starts figure with depth 50
% Polyline
60.000 slw
n 4800 2400 m
 4800 6000 l gs col0 s gr 
% Polyline
7.500 slw
 [180] 0 sd
n 3600 2400 m
 3600 6000 l gs col0 s gr  [] 0 sd
% Polyline
 [180] 0 sd
n 6000 2400 m
 6000 6000 l gs col0 s gr  [] 0 sd
% Polyline
15.000 slw
 [135 54 15 40 15 40 15 54 ] 0 sd
n 7200 2400 m
 7200 6000 l gs col0 s gr  [] 0 sd
% Polyline
 [135 54 15 40 15 40 15 54 ] 0 sd
n 2400 2400 m
 2400 6000 l gs col0 s gr  [] 0 sd
% Polyline
7.500 slw
n 4800 6375 m
 4800 5850 l gs col0 s gr 
% Polyline
n 4800 6825 m
 4800 7125 l gs col0 s gr 
% Polyline
gs  clippath
4815 6030 m 4815 5970 l 4663 5970 l 4783 6000 l 4663 6030 l cp
eoclip
n 3675 6000 m
 4800 6000 l gs col0 s gr gr

% arrowhead
n 4663 6030 m 4783 6000 l 4663 5970 l  col0 s
% Polyline
gs  clippath
2385 5970 m 2385 6030 l 2537 6030 l 2417 6000 l 2537 5970 l cp
eoclip
n 2400 6000 m
 3225 6000 l gs col0 s gr gr

% arrowhead
n 2537 5970 m 2417 6000 l 2537 6030 l  col0 s
% Polyline
gs  clippath
7215 6030 m 7215 5970 l 7063 5970 l 7183 6000 l 7063 6030 l cp
eoclip
n 7200 6000 m
 6150 6000 l gs col0 s gr gr

% arrowhead
n 7063 6030 m 7183 6000 l 7063 5970 l  col0 s
% Polyline
gs  clippath
4860 5970 m 4860 6030 l 5012 6030 l 4892 6000 l 5012 5970 l cp
eoclip
n 4875 6000 m
 5700 6000 l gs col0 s gr gr

% arrowhead
n 5012 5970 m 4892 6000 l 5012 6030 l  col0 s
/Symbol ff 270.00 scf sf
4575 2250 m
gs 1 -1 sc (F) col0 sh gr
/Symbol ff 270.00 scf sf
2175 2250 m
gs 1 -1 sc (F) col0 sh gr
/Symbol ff 270.00 scf sf
6900 2250 m
gs 1 -1 sc (F) col0 sh gr
/Symbol ff 270.00 scf sf
3300 6075 m
gs 1 -1 sc (D) col0 sh gr
/Symbol ff 270.00 scf sf
5775 6075 m
gs 1 -1 sc (D) col0 sh gr
/Times-Roman-iso ff 270.00 scf sf
6000 6075 m
gs 1 -1 sc (x) col0 sh gr
/Times-Roman-iso ff 270.00 scf sf
3525 6075 m
gs 1 -1 sc (x) col0 sh gr
/Times-Roman-iso ff 270.00 scf sf
4275 6675 m
gs 1 -1 sc (V) col0 sh gr
/Times-Roman-iso ff 270.00 scf sf
3750 4050 m
gs 1 -1 sc (Ex) col0 sh gr
/Times-Roman-iso ff 270.00 scf sf
6150 4050 m
gs 1 -1 sc (Ex) col0 sh gr
/Times-Roman-iso ff 180.00 scf sf
2400 2325 m
gs 1 -1 sc (-1) col0 sh gr
/Times-Roman-iso ff 180.00 scf sf
4800 2325 m
gs 1 -1 sc (0) col0 sh gr
/Times-Roman-iso ff 180.00 scf sf
7125 2325 m
gs 1 -1 sc (1) col0 sh gr
/Times-Roman-iso ff 180.00 scf sf
4050 4125 m
gs 1 -1 sc (-1/2) col0 sh gr
/Times-Roman-iso ff 180.00 scf sf
6450 4125 m
gs 1 -1 sc (1/2) col0 sh gr
/Times-Roman-iso ff 180.00 scf sf
3675 6225 m
gs 1 -1 sc (-) col0 sh gr
/Times-Roman-iso ff 180.00 scf sf
6150 6225 m
gs 1 -1 sc (+) col0 sh gr
% here ends figure;
% 
% here starts figure with depth 0
% Polyline
7.500 slw
n 4800 6300 m
 4800 6450 l gs col-1 s gr 
% Polyline
n 4800 6675 m
 4800 6825 l gs col-1 s gr 
% Polyline
n 4575 6450 m
 5025 6450 l gs col-1 s gr 
% Polyline
n 4725 6525 m
 4875 6525 l gs col-1 s gr 
% Polyline
n 4575 6600 m
 5025 6600 l gs col-1 s gr 
% Polyline
n 4725 6675 m
 4875 6675 l gs col-1 s gr 
/Times-Roman-iso ff 180.00 scf sf
4575 6803 m
gs 1 -1 sc (-) col-1 sh gr
/Times-Roman-iso ff 180.00 scf sf
4575 6375 m
gs 1 -1 sc (+) col-1 sh gr
% Polyline
n 4800 7125 m
 4800 7275 l gs col-1 s gr 
% Polyline
n 4650 7275 m
 4950 7275 l gs col-1 s gr 
% Polyline
n 4725 7350 m
 4875 7350 l gs col-1 s gr 
% Polyline
n 4770 7425 m
 4845 7425 l gs col-1 s gr 
% here ends figure;
$F2psEnd
rs
showpage
